…
This is very close to the true treatment effect of 2.2384912.

Then, let’s estimate an event study did:

``` r
# Event Study
es <- did_imputation(data = df_het, yname = "dep_var", gname = "g",
               tname = "year", idname = "unit", 
               # event-study
               horizon=TRUE, pretrends = -5:-1)

es
#> # A tibble: 26 × 5
#>    term  estimate std.error conf.low conf.high
#>    <chr>    <dbl>     <dbl>    <dbl>     <dbl>
#>  1 -5     -0.0641    0.0767  -0.214     0.0861
#>  2 -4     -0.0120    0.0753  -0.160     0.136 
#>  3 -3     -0.0139    0.0765  -0.164     0.136 
#>  4 -2      0.0510    0.0770  -0.0999    0.202 
#>  5 -1      0.0202    0.0758  -0.128     0.169 
#>  6 0       1.51      0.0755   1.37      1.66  
#>  7 1       1.66      0.0841   1.50      1.83  
#>  8 2       1.86      0.0829   1.70      2.03  
#>  9 3       1.92      0.0843   1.75      2.08  
#> 10 4       1.87      0.0842   1.71      2.04  
#> # … with 16 more rows
```
…
